-------------------------------------------------------------------------------
Test set: com.proyecto.demo.AppTest
-------------------------------------------------------------------------------
Tests run: 1, Failures: 0, Errors: 0, Skipped: 0, Time elapsed: 0.061 s - in com.proyecto.demo.AppTest
